%YAML 1.1
%TAG !u! tag:unity3d.com,2011:
--- !u!21 &2100000
Material:
  serializedVersion: 6
  m_ObjectHideFlags: 0
  m_CorrespondingSourceObject: {fileID: 0}
  m_PrefabInstance: {fileID: 0}
  m_PrefabAsset: {fileID: 0}
  m_Name: Lava
  m_Shader: {fileID: 4800000, guid: eb9afa2b617031247ac6bc87e88c9b58, type: 3}
  m_ShaderKeywords: _EMISSION
  m_LightmapFlags: 1
  m_EnableInstancingVariants: 0
  m_DoubleSidedGI: 0
  m_CustomRenderQueue: -1
  stringTagMap: {}
  disabledShaderPasses: []
  m_SavedProperties:
    serializedVersion: 3
    m_TexEnvs:
    - _BaseTextyre:
        m_Texture: {fileID: 2800000, guid: b66bceaf0cc0ace4e9bdc92f14bba709, type: 3}
        m_Scale: {x: 1, y: 1}
        m_Offset: {x: 0, y: 0}
    - _BumpMap:
        m_Texture: {fileID: 0}
        m_Scale: {x: 1, y: 1}
        m_Offset: {x: 0, y: 0}
    - _DetailAlbedoMap:
        m_Texture: {fileID: 0}
        m_Scale: {x: 1, y: 1}
        m_Offset: {x: 0, y: 0}
    - _DetailMask:
        m_Texture: {fileID: 0}
        m_Scale: {x: 1, y: 1}
        m_Offset: {x: 0, y: 0}
    - _DetailNormalMap:
        m_Texture: {fileID: 0}
        m_Scale: {x: 1, y: 1}
        m_Offset: {x: 0, y: 0}
    - _EmissionMap:
        m_Texture: {fileID: 0}
        m_Scale: {x: 1, y: 1}
        m_Offset: {x: 0, y: 0}
    - _FlowMap:
        m_Texture: {fileID: 2800000, guid: 6f69c6af0205556439ba73d144413aa2, type: 3}
        m_Scale: {x: 30, y: 30}
        m_Offset: {x: 0, y: 0}
    - _Gradient:
        m_Texture: {fileID: 2800000, guid: 271f5ee3273dd7f4fae6e204d4f8c4bf, type: 3}
        m_Scale: {x: 1, y: 1}
        m_Offset: {x: 0, y: 0}
    - _MainTex:
        m_Texture: {fileID: 0}
        m_Scale: {x: 1, y: 1}
        m_Offset: {x: 0, y: 0}
    - _MainTexture:
        m_Texture: {fileID: 2800000, guid: ee6dc1be456732d48b3c7bfa74fa6eb0, type: 3}
        m_Scale: {x: 30, y: 30}
        m_Offset: {x: 0, y: 0}
    - _MetallicGlossMap:
        m_Texture: {fileID: 0}
        m_Scale: {x: 1, y: 1}
        m_Offset: {x: 0, y: 0}
    - _Noise:
        m_Texture: {fileID: 2800000, guid: 28c7aad1372ff114b90d330f8a2dd938, type: 3}
        m_Scale: {x: 1, y: 1}
        m_Offset: {x: 0, y: 0}
    - _OcclusionMap:
        m_Texture: {fileID: 0}
        m_Scale: {x: 1, y: 1}
        m_Offset: {x: 0, y: 0}
    - _ParallaxMap:
        m_Texture: {fileID: 0}
        m_Scale: {x: 1, y: 1}
        m_Offset: {x: 0, y: 0}
    - _UndoEffectTexture:
        m_Texture: {fileID: 2800000, guid: ee6dc1be456732d48b3c7bfa74fa6eb0, type: 3}
        m_Scale: {x: 30, y: 30}
        m_Offset: {x: 0, y: 0}
    m_Floats:
    - _BumpScale: 1
    - _Cutoff: 0.5
    - _DetailNormalMapScale: 1
    - _Dissolveamount: 0.42899
    - _DstBlend: 0
    - _EffectPower: 1.664951
    - _EmmisionStrench: 4.95
    - _Frensnel: 0
    - _FrensnelStranch: 1
    - _FrensnelStrench: 1
    - _Fresnel: 0
    - _FresnelStrench: 1
    - _GlossMapScale: 1
    - _Glossiness: 0.5
    - _GlossyReflections: 1
    - _Metalic: 0
    - _Metallic: 0
    - _Mode: 0
    - _MultiLines: 2
    - _OcclusionStrength: 1
    - _Outline: 0
    - _Outlinefresnel: 2
    - _Outlinestrench: 2
    - _Parallax: 0.02
    - _PowerOfLines: 1.512232
    - _Relief: 0.56
    - _SmoothnessTextureChannel: 0
    - _SpecularHighlights: 1
    - _Speed: -0.6751511
    - _Spin: -1.499941
    - _SrcBlend: 1
    - _Strench: 0.2
    - _Strensh: 2
    - _Teseeellation: 1
    - _TextureChangespeed: 0.2
    - _TextureDistanse: 1
    - _TextureStrench: 1
    - _UVSec: 0
    - _U_Speed: 0.05
    - _V_Speed: 0.025
    - _ZWrite: 1
    m_Colors:
    - _Color: {r: 1, g: 1, b: 1, a: 1}
    - _EmissionColor: {r: 0, g: 0, b: 0, a: 1}
    - _color: {r: 0, g: 0.6813383, b: 1, a: 1}
