%YAML 1.1
%TAG !u! tag:unity3d.com,2011:
--- !u!78 &1
TagManager:
  serializedVersion: 2
  tags:
  - Projectile
  - Launcher
  - Floor
  - Aura
  - Gun
  - Ammo
  - Battery1
  - Battery2
  - PickUp
  - Field1
  - Field2
  - Plasma
  - LoadingText
  - PauseMenu
  - PauseManager
  - Music
  - GameTimer
  - LivesText
  - CheckpointPrompt
  - CheckpointCollider_1
  - ProjectileFake
  - LaunchFake
  layers:
  - Default
  - TransparentFX
  - Ignore Raycast
  - 
  - Water
  - UI
  - 
  - 
  - Lighting
  - 
  - 
  - 
  - 
  - 
  - 
  - 
  - 
  - 
  - 
  - 
  - 
  - 
  - 
  - 
  - 
  - 
  - 
  - 
  - 
  - 
  - 
  - 
  m_SortingLayers:
  - name: Default
    uniqueID: 0
    locked: 0
